{
  "$schema": "https://themost-framework.github.io/themost/models/2018/2/schema.json",
  "@id": "https://universis.io/schemas/User",
  "name": "User",
  "title": "Application Users",
  "inherits": "Account",
  "hidden": false,
  "sealed": false,
  "abstract": false,
  "version": "1.3",
  "fields": [
    {
      "name": "id",
      "title": "Id",
      "description": "The identifier of the item.",
      "type": "Integer",
      "nullable": false,
      "primary": true
    },
    {
      "name": "lockoutTime",
      "title": "Lockout Time",
      "description": "The date and time that this account was locked out.",
      "type": "DateTime",
      "readonly": true
    },
    {
      "name": "logonCount",
      "title": "Logon Count",
      "description": "The number of times the account has successfully logged on.",
      "type": "Integer",
      "value": "javascript:return 0;",
      "readonly": true
    },
    {
      "name": "enabled",
      "title": "Enabled",
      "description": "Indicates whether a user is enabled or not.",
      "type": "Boolean",
      "nullable": false,
      "value": "javascript:return true;",
      "calculation": "javascript:return this.convertStrictBoolean(this.target,'enabled');"
    },
    {
      "name": "lastLogon",
      "title": "Last Logon",
      "description": "The last time and date the user logged on.",
      "type": "DateTime",
      "readonly": true
    },
    {
      "name": "groups",
      "title": "User Groups",
      "description": "A collection of groups where user belongs.",
      "type": "Group",
      "mapping": {
        "associationAdapter": "GroupMembers",
        "parentModel": "Group",
        "parentField": "id",
        "childModel": "User",
        "childField": "id",
        "associationType": "junction",
        "cascade": "delete",
        "select": [
          "id",
          "name",
          "alternateName"
        ]
      }
    },
    {
      "name": "additionalType",
      "value": "javascript:return 'User';"
    },
    {
      "name": "accountType",
      "value": "javascript:return 0;"
    },
    {
      "name": "departments",
      "title": "User departments",
      "description": "A collection of department where user belongs.",
      "type": "Department",
      "mapping": {
        "associationAdapter": "UserDepartment",
        "parentModel": "Department",
        "parentField": "id",
        "childModel": "User",
        "childField": "id",
        "associationType": "junction",
        "select": [
          "id",
          "name",
          "currentYear",
          "currentPeriod"
        ]
      }
    }
  ],
  "views": [
    {
      "name": "default",
      "title": "Default View",
      "fields": [
        {
          "name": "id"
        },
        {
          "name": "alternateName",
          "title": "Description",
          "coltype": "link",
          "href": "/User/{%id}/show.html"
        },
        {
          "name": "name",
          "title": "Username"
        },
        {
          "name": "accountType"
        }
      ]
    }
  ],
  "privileges": [
    {
      "mask": 15,
      "type": "global"
    },
    {
      "mask": 15,
      "type": "global",
      "account": "Administrators"
    },
    {
      "mask": 1,
      "type": "self",
      "filter": "id eq me()"
    }
  ]
}